Summarise c-square data to a lower resolution — summarise • csquares
…
    Returns the summarised object inheriting its class from x

    Author

    Pepijn de Vries

    Examples

library(dplyr)
orca |>
  as_csquares(csquares = "csquares") |>
  summarise(
    .by = "csquares",
    orcinus_orca = any(na.omit(.data$orcinus_orca)))
#> # A tibble: 560 × 2
#>    csquares   orcinus_orca
#>  * <csquares> <lgl>       
#>  1 1004       FALSE       
#>  2 1005       FALSE       
#>  3 1006       FALSE       
#>  4 1007       FALSE       
#>  5 1008       FALSE       
#>  6 1009       FALSE       
#>  7 1010       FALSE       
#>  8 1011       FALSE       
#>  9 1012       FALSE       
#> 10 1013       FALSE       
#> # ℹ 550 more rows
…
