Tidyverse methods for csquares objects (drop the 'csquares'-suffix) — filter.csquares • csquares
…
  ## Unite two columns into one:
  unite(orca_csq, "quad_realm", any_of(c("quadrant", "orcinus_orca")))
  
  ## As the csquares column gets nested in the example below,
  ## the resulting object is no longer of class csquares:
  orca_nest <- nest(orca_csq, nested_data = c("csquares", "orcinus_orca"))
  
  ## Unnest it:
  unnest(orca_nest, c(nested_data))
}
#> # A tibble: 2,058 × 3
#>    quadrant csquares   orcinus_orca
#>  * <chr>    <csquares> <lgl>       
#>  1 3        3603:3     FALSE       
#>  2 3        3413:4     TRUE        
#>  3 3        3109:3     FALSE       
#>  4 3        3016:4     FALSE       
#>  5 3        3602:2     FALSE       
#>  6 3        3700:1     FALSE       
#>  7 3        3015:3     FALSE       
#>  8 3        3106:4     FALSE       
#>  9 3        3317:4     FALSE       
#> 10 3        3507:3     FALSE       
#> # ℹ 2,048 more rows
…
