Tidy csquares • csquares
…
Printing the summarised object shows that there are only two rows
left. One for each value in the grouped column.

orca_sum
#> Simple feature collection with 4 features and 3 fields
#> Geometry type: POLYGON
#> Dimension:     XY
#> Bounding box:  xmin: -180 ymin: -90 xmax: 180 ymax: 90
#> Geodetic CRS:  WGS 84
#> # A tibble: 4 × 4
#> # Groups:   quadrant [4]
#>   quadrant realms csquares                                                  geom
#> * <chr>     <int> <csquares>                                       <POLYGON [°]>
#> 1 NE            6 1004:1|1004:2|1004:4|1005:1|1005:2|… ((10 35, 5 35, 0 35, 0 4…
#> 2 NW          101 7000:1|7000:2|7001:1|7001:2|7001:3|… ((-180 10, -180 15, -180…
#> 3 SE           76 3000:1|3000:2|3000:3|3000:4|3001:1|… ((0 -55, 0 -50, 0 -45, 0…
#> 4 SW           26 5000:1|5000:2|5000:3|5000:4|5001:1|… ((-180 -85, -180 -80, -1…

Join

Joining csquares objects is pretty straightforward and
is only allowed on objects that inherit from the data.frame
class. An exception are csquares objects that inherit from
the stars class (stars::st_as_stars()). On
those objects you are allowed to perform left joins, all other joins are
impossible. See also ?join.

Below you see how you can simply join a data.frame to a
csquares object by the csquares code.

df <- data.frame(foo = "bar", csquares = "3603:3")

left_join(orca_csq, df, by = "csquares") |> print(max = 30)
#>         csquares orcinus_orca  foo
#> 1  S60 E 30 (5°)        FALSE  bar
#> 2  S60 W 40 (5°)        FALSE <NA>
#> 3  N10 W 90 (5°)         TRUE <NA>
#> 4  N 0 W 40 (5°)        FALSE <NA>
#> 5  S10 W 70 (5°)         TRUE <NA>
#> 6  N 0 W100 (5°)         TRUE <NA>
#> 7  N40 E 30 (5°)        FALSE <NA>
#> 8  N 0 W100 (5°)         TRUE <NA>
#> 9  S 0 W 10 (5°)        FALSE <NA>
#> 10 S40 E130 (5°)         TRUE <NA>
#>  [ reached 'max' / getOption("max.print") -- omitted 2048 rows ]
…
